GROUP PRESENTATION
…
2.2 Which party was the winner in the municipalities with more than 100,000 habitants (census) in each of the elections?

2.2 Which party was the winner in the municipalities with more than 100,000 habitants (census) in each of the elections?

winners <- election_pivot |> 
  filter(censo>100000) |>
  group_by(codigo_municipio, date_elec_ym, party) |> 
  summarise(total_votes = sum(votos, na.rm = TRUE)) |> 
  slice(which.max(total_votes)) |> 
  ungroup()

winners

# A tibble: 231 × 4
   codigo_municipio date_elec_ym party                             total_votes
   <fct>            <date>       <chr>                                   <dbl>
 1 003              2008-03-01   PARTIDO POPULAR                         49909
 2 003              2011-11-01   PARTIDO POPULAR                         55858
 3 003              2015-12-01   PARTIDO POPULAR                         36149
 4 003              2016-06-01   PARTIDO POPULAR                         38470
 5 003              2019-04-01   PARTIDO SOCIALISTA OBRERO ESPAÑOL       28729
 6 003              2019-11-01   PARTIDO SOCIALISTA OBRERO ESPAÑOL       27074
 7 013              2008-03-01   PARTIDO POPULAR                         49463
 8 013              2011-11-01   PARTIDO POPULAR                         53152
 9 013              2015-12-01   PARTIDO POPULAR                         34111
10 013              2016-06-01   PARTIDO POPULAR                         38809
# ℹ 221 more rows
…
32-Ourense 39-Cantabria,

40-Segovia 42-Soria

44-Teruel 49-Zamora

2.5 Is it true that certain parties win in rural areas?

depopulated_spain <- election_pivot |> filter(codigo_provincia == "01"|codigo_provincia == "02"|codigo_provincia == "05"|codigo_provincia == "12"|codigo_provincia == "13"|codigo_provincia == "16"|codigo_provincia == "19"|codigo_provincia == "21"|codigo_provincia == "22"|codigo_provincia == "23"|codigo_provincia == "25"|codigo_provincia == "26"|codigo_provincia == "27"|codigo_provincia == "31"|codigo_provincia == "32"|codigo_provincia == "39"|codigo_provincia == "40"|codigo_provincia == "42"|codigo_provincia == "44"|codigo_provincia == "49")

win_depop_spain <- depopulated_spain |> select(c(codigo_provincia, date_elec_ym, siglas, votos))
win_depop_spain

# A tibble: 140,144 × 4
   codigo_provincia date_elec_ym siglas  votos
   <fct>            <date>       <chr>   <dbl>
 1 01               2008-03-01   PODEMOS     9
 2 01               2008-03-01   OTHERS     27
 3 01               2008-03-01   PSOE        1
 4 01               2008-03-01   OTHERS      1
 5 01               2008-03-01   OTHERS      2
 6 01               2008-03-01   PP        238
 7 01               2008-03-01   PODEMOS    61
 8 01               2008-03-01   OTHERS     85
 9 01               2008-03-01   OTHERS      4
10 01               2008-03-01   OTHERS     17
# ℹ 140,134 more rows

2.5 Is it true that certain parties win in rural areas?

Therefore, a new data frame named “maxvotes” has been created to consider the province code, election date, political party, and the number of votes each party received.

maxvotes <- win_depop_spain |> 
  filter(date_elec_ym %in% c("2008-03-01", "2011-11-01", "2015-12-01", "2016-06-01", "2019-04-01", "2019-11-01")) |> 
  group_by(date_elec_ym, codigo_provincia) |>
  slice_max(votos, n=1)
maxvotes

# A tibble: 120 × 4
# Groups:   date_elec_ym, codigo_provincia [120]
   codigo_provincia date_elec_ym siglas votos
   <fct>            <date>       <chr>  <dbl>
 1 01               2008-03-01   PSOE   56349
 2 02               2008-03-01   PP     49909
 3 05               2008-03-01   PP     20468
 4 12               2008-03-01   PP     42498
 5 13               2008-03-01   PP     23826
 6 16               2008-03-01   PP     15943
 7 19               2008-03-01   PP     23910
 8 21               2008-03-01   PSOE   37930
 9 22               2008-03-01   PSOE   13227
10 23               2008-03-01   PSOE   33232
# ℹ 110 more rows
…
Once we have percentage in both election and poll data, we merge the results. Then, the difference between the poll estimation and the real results is computed in order to get the polling error.

merged_votes <- 
  inner_join(votes_election, votes_survey, 
            by = c("date_elec_ym" = "date_elec_ym", 
                   "siglas" = "party")) |> 
  mutate(poll_error = result_election - result_poll)

2.6 How to calibrate the error of the polls (remember that the polls are voting intentions at national level)?

 print(merged_votes |> 
         select(date_elec_ym,siglas, result_election, result_poll, poll_error))

# A tibble: 39 × 5
   date_elec_ym siglas  result_election result_poll poll_error
   <date>       <chr>             <dbl>       <dbl>      <dbl>
 1 2008-03-01   BNG               0.835       1.08      -0.248
 2 2008-03-01   EAJ-PNV           1.21        1.79      -0.581
 3 2008-03-01   ERC               1.18        2.33      -1.15 
 4 2008-03-01   PP               40.6        38.4        2.18 
 5 2008-03-01   PSOE             44.2        42.2        1.99 
 6 2011-11-01   BNG               0.766       1.08      -0.316
 7 2011-11-01   EAJ-PNV           1.35        1.22       0.131
 8 2011-11-01   ERC               1.07        0.962      0.110
 9 2011-11-01   PP               45.3        43.3        2.05 
10 2011-11-01   PSOE             29.2        36.0       -6.82 
# ℹ 29 more rows
…
